Bio and Business Data Science - 1 CSV-Dateien einlesen
…
Beim Laden mit read_csv wird möglicherweise der Datentyp einiger Spalten falsch erkannt. DIe Funktion betrachtet die ersten Zeilen und ermittelt darauf basierend den Datentyp. Wird dieser falsch erkannt, so können wir den Datentyp für Spalten explizit angeben. Wie auch das Auswählen von Spalten können wir den Datentyp schon beim Laden mitgeben. Alternativ können wir den Datentyp auch später mit mutate noch verändern.

Manchmal hilft es schon, den Parameter guess_max auf einen größeren Wert zu setzen. Dieser bestimmt, wie viele Werte die Funktion betrachtet, um daraus den Datentyp einer Spalte abzuleiten. Standardmäßig ist dieser Wert auf 1000 begrenzt.

In unserem Datensatz orders.csv sind tatsächlich einige Datentypen falsch erkannt worden. Etwa die Spalte order_id, die als Datentyp double erkannt wird. Auch wenn die Werte allesamt als Dezimalzahlen betrachtet werden können, handelt es sich bei einer Bestellnummer nicht um eine Zahl in dem Sinne, dass man damit rechnen möchte. Es ist vielmehr eine Zeichenfolge, die per Konvention nur aus Zahlen besteht (aber nicht müsste). Der Datentyp character wäre somit angebrachter. Das können wir wie folgt ändern:

orders <- read_csv("./data/orders.csv",
                   col_types = list("order_id" = col_character()))

# Die Spalte order_id ist jetzt vom Typ <chr>
orders %>% 
  select(order_id)

# A tibble: 2,874 x 1
   order_id     
   <chr>        
 1 1130007101519
 2 1130014965839
 3 1130026958927
 4 1130030563407
 5 1130038853711
 6 1130045964367
 7 1130050519119
 8 1130060283983
 9 1130102194255
10 1130106880079
# ... with 2,864 more rows
…
orders <- read_csv("./data/orders.csv",
                   col_types = list(
                     "order_id" = col_character(),
                     "app_id" = col_character(),
                     "billing_address_zip"= col_character(),
                     "shipping_address_zip"= col_character()
                     )
                   )

# Die Spalte order_id ist jetzt vom Typ <chr>
orders %>% 
  select(order_id, app_id, billing_address_zip, shipping_address_zip)

# A tibble: 2,874 x 4
   order_id      app_id billing_address_zip shipping_address_zip
   <chr>         <chr>  <chr>               <chr>               
 1 1130007101519 580111 49610               <NA>                
 2 1130014965839 580111 49088               49088               
 3 1130026958927 580111 49080               <NA>                
 4 1130030563407 580111 45888               <NA>                
 5 1130038853711 580111 49356               <NA>                
 6 1130045964367 580111 49477               <NA>                
 7 1130050519119 580111 49090               49090               
 8 1130060283983 580111 48356               48356               
 9 1130102194255 580111 49090               49090               
10 1130106880079 580111 49090               <NA>                
# ... with 2,864 more rows
…
