Bio and Business Data Science - 3 Spalten auswählen
…
3  Spalten auswählen

3.1 Angabe von Spaltennamen

Die einfachste und intuitive Methode, um die Spalten eines Datensatzes einzuschränken, ist die Nennung der Spaltennamen. Dabei werden mehrere Spaltennamen mit einem Komma getrennt.

orders %>% 
  select(billing_address_zip, billing_address_city)

# A tibble: 2,874 x 2
   billing_address_zip billing_address_city
   <chr>               <chr>               
 1 49610               Quakenbrück         
 2 49088               Osnabrück           
 3 49080               Osnabrück           
 4 45888               Gelsenkirchen       
 5 49356               Diepholz            
 6 49477               Ibbenbüren          
 7 49090               Osnabrück           
 8 48356               Nordwalde           
 9 49090               Osnabrück           
10 49090               Osnabrück           
# ... with 2,864 more rows

3.2 Ausschließen von Spalten

Statt eine Positivliste zu definieren, können wir auch Spalten über ihren Namen ausschließen, indem wir ein Minuszeichen voranstellen. Das folgende Beispiel wählt alle Spalten des Datensatzes, außer die beiden genannten:

orders %>% 
  select(-order_id, -order_number)

3.3 Spalten anhand eines Namensmuster selektieren

orders %>% 
  select(starts_with("shipping_"))

# A tibble: 2,874 x 5
   shipping_address_city shipping_address_zip shipping_address~1 shipp~2 shipp~3
   <chr>                 <chr>                <chr>                <dbl>   <dbl>
 1 <NA>                  <NA>                 <NA>                  NA     NA   
 2 Osnabrück             49088                Germany               52.3    8.06
 3 <NA>                  <NA>                 <NA>                  NA     NA   
 4 <NA>                  <NA>                 <NA>                  NA     NA   
 5 <NA>                  <NA>                 <NA>                  NA     NA   
 6 <NA>                  <NA>                 <NA>                  NA     NA   
 7 Osnabrück             49090                Germany               52.3    8.00
 8 Nordwalde             48356                Germany               52.1    7.51
 9 Osnabrück             49090                Germany               52.3    8.06
10 <NA>                  <NA>                 <NA>                  NA     NA   
# ... with 2,864 more rows, and abbreviated variable names
#   1: shipping_address_country, 2: shipping_address_latitude,
#   3: shipping_address_longitude

orders %>% 
  select(ends_with("_at"))

# A tibble: 2,874 x 8
   created_at          updated_at          processed_at       
   <dttm>              <dttm>              <dttm>             
 1 2019-05-24 12:59:16 2019-06-19 13:23:26 2019-05-24 12:59:15
 2 2019-05-24 13:09:08 2019-06-21 14:40:07 2019-05-24 13:09:07
 3 2019-05-24 13:22:41 2019-06-21 12:35:23 2019-05-24 13:22:40
 4 2019-05-24 13:27:43 2019-06-21 14:27:18 2019-05-24 13:27:42
 5 2019-05-24 13:36:46 2019-06-21 12:11:57 2019-05-24 13:36:45
 6 2019-05-24 13:44:41 2019-06-21 14:37:21 2019-05-24 13:44:41
 7 2019-05-24 13:49:21 2019-06-21 12:25:16 2019-05-24 13:49:20
 8 2019-05-24 13:59:57 2019-06-21 11:49:47 2019-05-24 13:59:57
 9 2019-05-24 14:43:53 2019-06-19 14:12:38 2019-05-24 14:43:53
10 2019-05-24 14:48:16 2019-06-21 15:54:24 2019-05-24 14:48:16
# ... with 2,864 more rows, and 5 more variables:
#   customer_accepts_marketing_updated_at <dttm>, customer_created_at <dttm>,
#   customer_updated_at <dttm>, cancelled_at <dttm>, closed_at <dttm>

orders %>% 
  select(contains("address"))

# A tibble: 2,874 x 11
   shipping_ad~1 shipp~2 shipp~3 shipp~4 shipp~5 billi~6 billi~7 billi~8 billi~9
   <chr>         <chr>   <chr>     <dbl>   <dbl> <chr>   <chr>   <chr>   <chr>  
 1 <NA>          <NA>    <NA>       NA     NA    Quaken~ 49610   Germany <NA>   
 2 Osnabrück     49088   Germany    52.3    8.06 Osnabr~ 49088   Germany <NA>   
 3 <NA>          <NA>    <NA>       NA     NA    Osnabr~ 49080   Germany <NA>   
 4 <NA>          <NA>    <NA>       NA     NA    Gelsen~ 45888   Germany <NA>   
 5 <NA>          <NA>    <NA>       NA     NA    Diepho~ 49356   Germany <NA>   
 6 <NA>          <NA>    <NA>       NA     NA    Ibbenb~ 49477   Germany <NA>   
 7 Osnabrück     49090   Germany    52.3    8.00 Osnabr~ 49090   Germany <NA>   
 8 Nordwalde     48356   Germany    52.1    7.51 Nordwa~ 48356   Germany <NA>   
 9 Osnabrück     49090   Germany    52.3    8.06 Osnabr~ 49090   Germany <NA>   
10 <NA>          <NA>    <NA>       NA     NA    Osnabr~ 49090   Germany <NA>   
# ... with 2,864 more rows, 2 more variables: billing_address_latitude <dbl>,
#   billing_address_longitude <dbl>, and abbreviated variable names
#   1: shipping_address_city, 2: shipping_address_zip,
#   3: shipping_address_country, 4: shipping_address_latitude,
#   5: shipping_address_longitude, 6: billing_address_city,
#   7: billing_address_zip, 8: billing_address_country,
#   9: billing_address_company

orders %>% 
  select(matches("price"))

# A tibble: 2,874 x 4
   current_subtotal_price current_total_price total_line_items_price total_price
                    <dbl>               <dbl>                  <dbl>       <dbl>
 1                   94.7                94.7                   96.7        94.7
 2                   32.2                32.2                   32.2        32.2
 3                   30.2                30.2                   32.2        30.2
 4                   32.2                32.2                   32.2        32.2
 5                   30.2                30.2                   32.2        30.2
 6                   30.2                30.2                   32.2        30.2
 7                   30.2                30.2                   32.2        30.2
 8                   32.2                32.2                   32.2        32.2
 9                   96.7                96.7                   96.7        96.7
10                   32.2                32.2                   32.2        32.2
# ... with 2,864 more rows

3.4 Anhand des Datentyps einer Spalte

orders %>% 
    select(where(is.logical))

# A tibble: 2,874 x 3
   test  taxes_included customer_sms_marketing_consent
   <lgl> <lgl>          <lgl>                         
 1 FALSE TRUE           NA                            
 2 FALSE TRUE           NA                            
 3 FALSE TRUE           NA                            
 4 FALSE TRUE           NA                            
 5 FALSE TRUE           NA                            
 6 FALSE TRUE           NA                            
 7 FALSE TRUE           NA                            
 8 FALSE TRUE           NA                            
 9 FALSE TRUE           NA                            
10 FALSE TRUE           NA                            
# ... with 2,864 more rows

# Verschiedene Optionen kombiniert
orders %>% 
    select(where(is.numeric), -contains(c("discounts", "current_")))

# A tibble: 2,874 x 21
   order_number total_~1 total~2 total~3 total~4 total~5 locat~6 custo~7 custo~8
          <dbl>    <dbl>   <dbl>   <dbl>   <dbl>   <dbl>   <dbl>   <dbl>   <dbl>
 1         1014     96.7       0    94.7       0       0      NA 1.86e12       1
 2         1015     32.2       0    32.2       0       0      NA 1.86e12       1
 3         1016     32.2       0    30.2       0       0      NA 1.87e12       1
 4         1017     32.2       0    32.2       0       0      NA 1.87e12       1
 5         1018     32.2       0    30.2       0       0      NA 1.87e12       1
 6         1019     32.2       0    30.2       0       0      NA 1.87e12       1
 7         1020     32.2       0    30.2       0       0      NA 1.87e12       1
 8         1021     32.2       0    32.2       0       0      NA 1.88e12       1
 9         1022     96.7       0    96.7       0       0      NA 1.88e12       1
10         1023     32.2       0    32.2       0       0      NA 1.88e12       1
# ... with 2,864 more rows, 12 more variables: customer_is_hsos <dbl>,
#   customer_orders_count <dbl>, customer_total_spent <dbl>,
#   customer_last_order_id <dbl>, customer_verified_email <dbl>,
#   customer_tax_exempt <dbl>, shipping_address_latitude <dbl>,
#   shipping_address_longitude <dbl>, billing_address_latitude <dbl>,
#   billing_address_longitude <dbl>, client_details_browser_height <dbl>,
#   client_details_browser_width <dbl>, and abbreviated variable names ...

# Verschiedene Optionen kombiniert
orders %>% 
    select(where(is.character),
           -ends_with("id"), 
           -starts_with("shipping"),
           -starts_with("billing"),
           -starts_with("customer")
           )

# A tibble: 2,874 x 16
   name  discount_~1 finan~2 fulfi~3 sourc~4 landi~5 landi~6 note  tags  proce~7
   <chr> <chr>       <chr>   <chr>   <chr>   <chr>   <chr>   <chr> <chr> <chr>  
 1 B1014 DCBPXGJB1J~ paid    fulfil~ web     /passw~ <NA>    <NA>  <NA>  direct 
 2 B1015 <NA>        paid    fulfil~ web     /walle~ <NA>    <NA>  <NA>  express
 3 B1016 KY0D5MNEZB~ paid    fulfil~ web     /       <NA>    <NA>  <NA>  express
 4 B1017 <NA>        paid    fulfil~ web     /walle~ <NA>    <NA>  <NA>  express
 5 B1018 DCBPXGJB1J~ paid    fulfil~ web     <NA>    <NA>    <NA>  <NA>  express
 6 B1019 DCBPXGJB1J~ paid    fulfil~ web     <NA>    <NA>    <NA>  <NA>  express
 7 B1020 DCBPXGJB1J~ paid    fulfil~ web     <NA>    <NA>    <NA>  <NA>  express
 8 B1021 <NA>        paid    fulfil~ web     /       <NA>    <NA>  <NA>  express
 9 B1022 <NA>        paid    fulfil~ web     /walle~ <NA>    <NA>  <NA>  express
10 B1023 <NA>        paid    fulfil~ web     <NA>    <NA>    <NA>  <NA>  express
# ... with 2,864 more rows, 6 more variables: payment_details_gateway <chr>,
#   payment_details_credit_card_company <chr>, campaign_tag <chr>,
#   client_details_browser_ip <chr>, client_details_user_agent <chr>,
#   cancel_reason <chr>, and abbreviated variable names 1: discount_codes,
#   2: financial_status, 3: fulfillment_status, 4: source_name,
#   5: landing_site, 6: landing_site_ref, 7: processing_method

orders %>% 
  select(where(lubridate::is.Date))

# A tibble: 2,874 x 0

# Eigene Funktion, um Datums- und Datum + Zeitspalten zu ermitteln
is.DateTime <- function(x) {
  inherits(x, c("Date", "POSIXct"))
}

orders %>% 
  select(where(is.DateTime))

# A tibble: 2,874 x 8
   created_at          updated_at          processed_at       
   <dttm>              <dttm>              <dttm>             
 1 2019-05-24 12:59:16 2019-06-19 13:23:26 2019-05-24 12:59:15
 2 2019-05-24 13:09:08 2019-06-21 14:40:07 2019-05-24 13:09:07
 3 2019-05-24 13:22:41 2019-06-21 12:35:23 2019-05-24 13:22:40
 4 2019-05-24 13:27:43 2019-06-21 14:27:18 2019-05-24 13:27:42
 5 2019-05-24 13:36:46 2019-06-21 12:11:57 2019-05-24 13:36:45
 6 2019-05-24 13:44:41 2019-06-21 14:37:21 2019-05-24 13:44:41
 7 2019-05-24 13:49:21 2019-06-21 12:25:16 2019-05-24 13:49:20
 8 2019-05-24 13:59:57 2019-06-21 11:49:47 2019-05-24 13:59:57
 9 2019-05-24 14:43:53 2019-06-19 14:12:38 2019-05-24 14:43:53
10 2019-05-24 14:48:16 2019-06-21 15:54:24 2019-05-24 14:48:16
# ... with 2,864 more rows, and 5 more variables:
#   customer_accepts_marketing_updated_at <dttm>, customer_created_at <dttm>,
#   customer_updated_at <dttm>, cancelled_at <dttm>, closed_at <dttm>

# Weitere Datentypen, die in diesem Datensatz nicht auftreten
orders %>% 
  select(where(is.factor))

orders %>% 
  select(where(is.list))

3.5 Spalten über deren Position auswählen

# Die letzte Spalte im Datensatz
orders %>% 
  select(last_col())

# A tibble: 2,874 x 1
   closed_at          
   <dttm>             
 1 2019-06-19 13:23:26
 2 2019-06-21 14:40:07
 3 2019-06-21 12:35:22
 4 2019-06-21 14:27:18
 5 2019-06-21 12:11:57
 6 2019-06-21 14:37:21
 7 2019-06-21 12:25:16
 8 2019-06-21 11:49:46
 9 2019-06-19 14:12:38
10 2019-06-21 15:54:24
# ... with 2,864 more rows

# Die vorletzte Spalte im Datensatz
orders %>% 
  select(last_col(2))

# A tibble: 2,874 x 1
   cancel_reason
   <chr>        
 1 <NA>         
 2 <NA>         
 3 <NA>         
 4 <NA>         
 5 <NA>         
 6 <NA>         
 7 <NA>         
 8 <NA>         
 9 <NA>         
10 <NA>         
# ... with 2,864 more rows

# Die erste Spalte im Datensatz
orders %>% 
  select(1)

# A tibble: 2,874 x 1
   order_id     
   <chr>        
 1 1130007101519
 2 1130014965839
 3 1130026958927
 4 1130030563407
 5 1130038853711
 6 1130045964367
 7 1130050519119
 8 1130060283983
 9 1130102194255
10 1130106880079
# ... with 2,864 more rows

orders %>% 
  select(2:5)

# A tibble: 2,874 x 4
   name  order_number app_id created_at         
   <chr>        <dbl> <chr>  <dttm>             
 1 B1014         1014 580111 2019-05-24 12:59:16
 2 B1015         1015 580111 2019-05-24 13:09:08
 3 B1016         1016 580111 2019-05-24 13:22:41
 4 B1017         1017 580111 2019-05-24 13:27:43
 5 B1018         1018 580111 2019-05-24 13:36:46
 6 B1019         1019 580111 2019-05-24 13:44:41
 7 B1020         1020 580111 2019-05-24 13:49:21
 8 B1021         1021 580111 2019-05-24 13:59:57
 9 B1022         1022 580111 2019-05-24 14:43:53
10 B1023         1023 580111 2019-05-24 14:48:16
# ... with 2,864 more rows

# Alle Spalten bis auf die letzten 10
orders %>% 
    select(1:last_col(10))

# A tibble: 2,874 x 58
   order_id   name  order~1 app_id created_at          updated_at          test 
   <chr>      <chr>   <dbl> <chr>  <dttm>              <dttm>              <lgl>
 1 113000710~ B1014    1014 580111 2019-05-24 12:59:16 2019-06-19 13:23:26 FALSE
 2 113001496~ B1015    1015 580111 2019-05-24 13:09:08 2019-06-21 14:40:07 FALSE
 3 113002695~ B1016    1016 580111 2019-05-24 13:22:41 2019-06-21 12:35:23 FALSE
 4 113003056~ B1017    1017 580111 2019-05-24 13:27:43 2019-06-21 14:27:18 FALSE
 5 113003885~ B1018    1018 580111 2019-05-24 13:36:46 2019-06-21 12:11:57 FALSE
 6 113004596~ B1019    1019 580111 2019-05-24 13:44:41 2019-06-21 14:37:21 FALSE
 7 113005051~ B1020    1020 580111 2019-05-24 13:49:21 2019-06-21 12:25:16 FALSE
 8 113006028~ B1021    1021 580111 2019-05-24 13:59:57 2019-06-21 11:49:47 FALSE
 9 113010219~ B1022    1022 580111 2019-05-24 14:43:53 2019-06-19 14:12:38 FALSE
10 113010688~ B1023    1023 580111 2019-05-24 14:48:16 2019-06-21 15:54:24 FALSE
# ... with 2,864 more rows, 51 more variables: current_subtotal_price <dbl>,
#   current_total_price <dbl>, current_total_discounts <dbl>,
#   current_total_duties_set <dbl>, total_discounts <dbl>,
#   total_line_items_price <dbl>, total_outstanding <dbl>, total_price <dbl>,
#   total_tax <dbl>, total_tip_received <dbl>, taxes_included <lgl>,
#   discount_codes <chr>, financial_status <chr>, fulfillment_status <chr>,
#   source_name <chr>, landing_site <chr>, landing_site_ref <chr>, ...

3.6 Spalten über eine Menge auswählen

# Liste von Spalten via all_of: Nur gültige Spaltennamen erlaubtt
cols <- c("created_at", "processed_at", "closed_at")

orders %>% 
  select(all_of(cols))

# A tibble: 2,874 x 3
   created_at          processed_at        closed_at          
   <dttm>              <dttm>              <dttm>             
 1 2019-05-24 12:59:16 2019-05-24 12:59:15 2019-06-19 13:23:26
 2 2019-05-24 13:09:08 2019-05-24 13:09:07 2019-06-21 14:40:07
 3 2019-05-24 13:22:41 2019-05-24 13:22:40 2019-06-21 12:35:22
 4 2019-05-24 13:27:43 2019-05-24 13:27:42 2019-06-21 14:27:18
 5 2019-05-24 13:36:46 2019-05-24 13:36:45 2019-06-21 12:11:57
 6 2019-05-24 13:44:41 2019-05-24 13:44:41 2019-06-21 14:37:21
 7 2019-05-24 13:49:21 2019-05-24 13:49:20 2019-06-21 12:25:16
 8 2019-05-24 13:59:57 2019-05-24 13:59:57 2019-06-21 11:49:46
 9 2019-05-24 14:43:53 2019-05-24 14:43:53 2019-06-19 14:12:38
10 2019-05-24 14:48:16 2019-05-24 14:48:16 2019-06-21 15:54:24
# ... with 2,864 more rows

# Liste von Spalten via any_of: Nicht alle Spalten muss es auch geben.
# Sinnvoll, wenn gleiche Liste auf unterschiedliche Datensätze angewendet wird..
cols <- c("created_at", "processed_at", "closed_at", "shipped_at")

orders %>% 
  select(any_of(cols))

# A tibble: 2,874 x 3
   created_at          processed_at        closed_at          
   <dttm>              <dttm>              <dttm>             
 1 2019-05-24 12:59:16 2019-05-24 12:59:15 2019-06-19 13:23:26
 2 2019-05-24 13:09:08 2019-05-24 13:09:07 2019-06-21 14:40:07
 3 2019-05-24 13:22:41 2019-05-24 13:22:40 2019-06-21 12:35:22
 4 2019-05-24 13:27:43 2019-05-24 13:27:42 2019-06-21 14:27:18
 5 2019-05-24 13:36:46 2019-05-24 13:36:45 2019-06-21 12:11:57
 6 2019-05-24 13:44:41 2019-05-24 13:44:41 2019-06-21 14:37:21
 7 2019-05-24 13:49:21 2019-05-24 13:49:20 2019-06-21 12:25:16
 8 2019-05-24 13:59:57 2019-05-24 13:59:57 2019-06-21 11:49:46
 9 2019-05-24 14:43:53 2019-05-24 14:43:53 2019-06-19 14:12:38
10 2019-05-24 14:48:16 2019-05-24 14:48:16 2019-06-21 15:54:24
# ... with 2,864 more rows
