Bio & Business Data Science - 1 Das Tidyverse
…
Kürzere und prägnantere Ausgabe auf der Konsole.

Keine Veränderung von Spaltennamen im Vergleich zur Quelle.

Keine Umwandlung von Zeichenketten in Faktoren als Standard.

Ein Tibble erzeugt keine Namen für Zeilen (rownames)

Ausgabe auf der Konsole

Eine nützliche Verbesserung ist die sinnvollere Ausgabe eines Tibbles auf der Konsole. Das Beispiel unten gibt das Tibble tweets, das wir im nächsten Kapitel laden werden, auf der Konsole aus:

tweets

# A tibble: 46,787 x 22
   id             screen_name text  retweet_count favorite_count is_quote_status
   <chr>          <chr>       <chr>         <dbl>          <dbl> <lgl>          
 1 1518891431288~ MarcoBusch~ "beg~             3             12 FALSE          
 2 1518891429820~ MarcoBusch~ "Die~             3             15 FALSE          
 3 1518907549420~ starkwatzi~ "@Ko~             1             10 FALSE          
 4 1518907549420~ starkwatzi~ "@Ko~             1             10 FALSE          
 5 1518916990915~ NancyFaeser "Uns~            53            490 FALSE          
 6 1518916990915~ NancyFaeser "Uns~            53            490 FALSE          
 7 1518947908980~ c_lindner   "So ~             6             53 FALSE          
 8 1518960421214~ MarcoBusch~ "@ar~             1              4 FALSE          
 9 1518957407845~ MarcoBusch~ "Bei~            20             99 FALSE          
10 1518922009157~ MarcoBusch~ "@sc~             1              0 FALSE          
# ... with 46,777 more rows, and 16 more variables: is_retweet <lgl>,
#   lang <chr>, in_reply_to_screen_name <chr>, in_reply_to_status_id <chr>,
#   hashtags <list>, urls <list>, user_mentions <list>, photos <list>,
#   source <chr>, insert_timestamp <chr>, created_at <dttm>, quote_count <dbl>,
#   reply_count <dbl>, retweeted_status_id <chr>, retweeted_user <chr>,
#   quoted_status_id <chr>
…
